14/08/2015,89.199997,89.800003,88.300003,89.050003,76.469933,13834295
17/08/2015,89.050003,92,86.900002,91.650002,78.702637,22197833
18/08/2015,92.349998,99.650002,92.150002,97.300003,83.554451,43015455
19/08/2015,96.849998,99.150002,95.25,95.449997,81.965813,24217851
20/08/2015,95.650002,97.800003,94.949997,95.599998,82.09462,18647316
21/08/2015,93.949997,95.5,92.449997,95.099998,81.66526,12997813
24/08/2015,90.900002,91.650002,81.050003,84.449997,72.519775,22241715
25/08/2015,85.550003,88,77.849998,86.5,74.280167,31007018
26/08/2015,86.5,89.099998,83.900002,87.5,75.138901,22066550
27/08/2015,90,91.900002,89.199997,91.5,78.573822,23150418
28/08/2015,93.25,94.25,91.400002,92.150002,79.131989,17021876
31/08/2015,92.400002,93.449997,89.849998,90.300003,77.54335,13482019
01/09/2015,90.300003,92.199997,84.5,87.449997,75.095955,26892860
02/09/2015,89.150002,89.699997,85.5,85.949997,73.807861,15855837
03/09/2015,87,88.400002,86.75,87.650002,75.267708,12620802
04/09/2015,89,89.75,84.199997,85,72.992073,22421978
07/09/2015,85.5,85.900002,80.650002,81.949997,70.372948,21329828
08/09/2015,82,83.550003,80.599998,82,70.415878,28590049
09/09/2015,83.800003,87.949997,83,87.5,75.138901,24786584
10/09/2015,85,87.650002,84.099998,87.25,74.924225,18529069
11/09/2015,88.699997,90.5,87.199997,87.699997,75.310646,20625369
14/09/2015,88.349998,89.849998,87.699997,89.5,76.856354,11357209
15/09/2015,89.599998,89.949997,86.599998,87.050003,74.752472,11417644
16/09/2015,88.349998,88.599998,86.400002,87.199997,74.881279,8721283
18/09/2015,88.800003,89.900002,87.650002,87.949997,75.525322,12120781
21/09/2015,87.199997,88.599998,87,88.150002,75.697067,8831799
22/09/2015,89.050003,92.300003,88,88.800003,76.255257,31852686
23/09/2015,87.949997,91.099998,87.25,90.599998,77.800972,13843753
24/09/2015,90.800003,91.900002,90.050003,91.099998,78.230331,14527450
28/09/2015,91.849998,92.900002,90.349998,90.550003,77.758026,11532538
29/09/2015,89.300003,91.75,87.5,90.699997,77.886833,16672596
30/09/2015,91.449997,92.5,91.199997,92.25,79.217865,12243220
01/10/2015,93.449997,94.900002,92.800003,94.25,80.935326,20135688
05/10/2015,95.300003,96.199997,93.900002,94.699997,81.321754,15570012
06/10/2015,95.349998,95.449997,94.050003,94.349998,81.021202,14090570
07/10/2015,94.5,94.5,92.800003,93.050003,79.904861,16386172
08/10/2015,93.75,93.800003,91,91.650002,78.702637,11058934
09/10/2015,92.25,92.900002,91.150002,92.199997,79.174927,10328236
12/10/2015,92.5,94.349998,92.199997,93.849998,80.591835,11276855
13/10/2015,94.300003,95.099998,93.300003,94.050003,80.763588,11328620
14/10/2015,93.900002,95.099998,93.650002,94.849998,81.450562,11725205
15/10/2015,95.650002,95.75,94.699997,95,81.579376,10537004
16/10/2015,95.300003,96.5,94.900002,96.150002,82.566917,9945773
19/10/2015,96.349998,96.800003,95.699997,96.050003,82.481064,7268779
20/10/2015,95.900002,97.199997,95.75,96.25,82.652794,9611736
21/10/2015,96.5,97.199997,94.699997,95.800003,82.266373,9529194
23/10/2015,96.699997,96.699997,94.599998,95,81.579376,9576721
26/10/2015,95.449997,95.449997,92.25,92.699997,79.604294,8421351
27/10/2015,92.449997,93.75,91.199997,92.900002,79.776039,9026784
28/10/2015,93,93.099998,90.800003,91,78.144455,17677356
29/10/2015,90.949997,94.099998,89.5,93.800003,80.548912,11474771
30/10/2015,94,95.050003,92.699997,93.699997,80.463036,14007650
02/11/2015,94,94.650002,89.300003,90.300003,77.54335,18444976
03/11/2015,90.5,91.099998,89.199997,90.300003,77.54335,15006331
04/11/2015,91.800003,93.5,91.5,92.199997,79.174927,19743368
05/11/2015,91,91.5,86.400002,86.800003,74.537796,47761162
06/11/2015,85.599998,87.949997,84.099998,87.599998,75.224777,18725081
09/11/2015,83,89.5,82.75,88.949997,76.384048,13643273
10/11/2015,88.699997,90.199997,88.25,89.5,76.856354,9965775
13/11/2015,90.5,91.400002,89.599998,90.300003,77.54335,15518414
16/11/2015,90.300003,91.150002,90,90.699997,77.886833,7951538
17/11/2015,90.949997,92.449997,90.800003,91.949997,78.960251,13325472
18/11/2015,92.300003,92.849998,91.25,91.699997,78.745567,9202923
19/11/2015,92.900002,93.400002,91.949997,93.099998,79.947792,8910808
20/11/2015,93,93.900002,92.5,93.650002,80.42009,10688133
23/11/2015,93.650002,96.349998,93.650002,96.099998,82.523979,14312578
24/11/2015,96.25,96.800003,94.300003,94.800003,81.407631,10695107
26/11/2015,94.900002,95.5,93.650002,94.099998,80.806519,19628662
27/11/2015,97,98,95.5,97.599998,83.81208,19926585
30/11/2015,98.400002,99.650002,92.849998,94.400002,81.06414,133420725
01/12/2015,95.5,95.5,93,93.400002,80.205414,20979908
02/12/2015,93.5,93.949997,92.099998,92.849998,79.733109,18001146
03/12/2015,92.5,93.300003,91.550003,91.949997,78.960251,14427086
04/12/2015,91.900002,92.900002,90.050003,90.25,77.500404,16631397
07/12/2015,91,91.349998,89.349998,90.050003,77.328667,8784251
08/12/2015,90.099998,91.25,89.300003,89.599998,76.942245,11658924
09/12/2015,89.550003,89.800003,86.25,86.550003,74.323112,10153695
10/12/2015,87.199997,89.400002,85.800003,89.099998,76.512863,11833263
11/12/2015,89.75,89.75,85.150002,86.349998,74.15136,13265498
14/12/2015,85.5,87.150002,84.699997,86.050003,73.893745,9519393
15/12/2015,86.5,87.650002,85.849998,87.300003,74.967155,8691067
16/12/2015,87.849998,89.150002,87.199997,88.099998,75.654129,9014842
17/12/2015,88.949997,89.449997,87.900002,89.199997,76.59874,5855160
18/12/2015,88.5,90.849998,88.5,89.650002,76.985168,15298271
21/12/2015,89.599998,90.449997,88.650002,89.349998,76.727547,4709638
22/12/2015,89.800003,89.900002,88.099998,88.400002,75.911766,4712887
23/12/2015,88.849998,88.849998,87.400002,87.900002,75.482391,5069081
24/12/2015,88.400002,88.449997,87.300003,87.900002,75.482391,4177296
28/12/2015,88.300003,89.5,87.75,88.949997,76.384048,5336683
29/12/2015,89.449997,89.949997,88.800003,89.75,77.071045,7522421
30/12/2015,90,90.550003,89.25,89.5,76.856354,4351143
31/12/2015,89.599998,90.050003,87.699997,87.900002,75.482391,8625067
01/01/2016,87.849998,89,87.599998,88.800003,76.255257,3473648
04/01/2016,90.75,92.300003,90.199997,92,79.003189,17502163
05/01/2016,93,93.349998,92.349998,93.099998,79.947792,10380113
06/01/2016,93.25,94.150002,92.050003,92.699997,79.604294,8151682
07/01/2016,91.900002,92.400002,90.349998,91.349998,78.445023,9414939
08/01/2016,92.099998,92.599998,90.300003,90.75,77.929779,6963108
11/01/2016,92,92.900002,90.300003,92.400002,79.346687,9615889
12/01/2016,93.349998,93.949997,91.199997,92.099998,79.089066,6568778
13/01/2016,93.050003,93.199997,86.400002,90.199997,77.457474,11681049
14/01/2016,88,90.75,87.150002,88.599998,76.083504,8154318
15/01/2016,89.300003,89.650002,84.5,85.099998,73.077934,6945294
18/01/2016,85.199997,85.349998,81.5,83.099998,71.360481,13401345
19/01/2016,83.400002,87.150002,83.300003,86.800003,74.537796,11441816
20/01/2016,85.300003,85.699997,82.099998,83.449997,71.661041,9819841
21/01/2016,85,85.25,82.25,83.599998,71.789848,7742611
22/01/2016,85,86.5,84.199997,85.699997,73.593185,7579720
25/01/2016,86.900002,87.25,86.099998,86.75,74.49485,6908496
27/01/2016,87.199997,88.800003,85.800003,88.300003,75.82589,10218006
28/01/2016,88.5,89.5,87.699997,88.150002,75.697067,11485187
29/01/2016,88.400002,89.900002,87.75,89.599998,76.942245,6357193
01/02/2016,89.800003,92.5,89.599998,91.5,78.573822,11659536
02/02/2016,91.800003,93,90,90.5,77.715088,6964213
03/02/2016,88.550003,89.900002,85.650002,86.849998,74.580727,9216469
04/02/2016,88.300003,89.199997,86.800003,87.599998,75.224777,9110003
05/02/2016,88.050003,91.099998,87.650002,90.599998,77.800972,8355455
08/02/2016,90.849998,92.449997,88.650002,89.199997,76.59874,6311100
09/02/2016,88,89.099998,86.800003,88.25,75.782951,6688529
10/02/2016,87.800003,88.199997,85.349998,87.349998,75.010086,8182342
11/02/2016,87.949997,88,77.699997,80.900002,69.471283,17442913
12/02/2016,84.5,84.5,80.349998,83.199997,71.44635,19614698
15/02/2016,85,90,84.699997,89.650002,76.985168,12444831
16/02/2016,90.5,91,86.900002,87.25,74.924225,8551128
17/02/2016,87.5,90.5,85.099998,90,77.285728,11233960
18/02/2016,90.900002,91.099998,86.75,89.800003,77.113983,9993452
19/02/2016,89.349998,91.5,88.849998,91.199997,78.316193,8183697
22/02/2016,91.900002,92.699997,91.300003,92.199997,79.174927,8514736
23/02/2016,92.349998,92.599998,88.849998,89.199997,76.59874,10340834
24/02/2016,88.550003,89.199997,87.25,87.5,75.138901,10772885
25/02/2016,88,88.25,85.75,85.949997,73.807861,12736836
26/02/2016,87.400002,87.599998,84.849998,85.550003,73.464371,9116692
29/02/2016,85.849998,89,84.449997,87.650002,75.267708,16275473
01/03/2016,88.199997,91.349998,88.199997,91.050003,78.187393,17582988
02/03/2016,92.5,94.349998,92,93.449997,80.248344,12440686
03/03/2016,94.199997,95.050003,92.300003,94.25,80.935326,10892546
04/03/2016,94.849998,94.849998,92.849998,93.550003,80.334213,6650601
08/03/2016,93.849998,93.949997,90.949997,91.949997,78.960251,10204487
09/03/2016,91.199997,97.449997,90.900002,97.150002,83.425644,20873331
10/03/2016,97.599998,98,95.300003,96.550003,82.910408,16263753
11/03/2016,96.050003,98.5,95.75,97.099998,83.382713,15493557
14/03/2016,97.900002,98.150002,96.550003,97.199997,83.468582,8370894
15/03/2016,97.449997,97.650002,95,95.949997,82.395164,7163013
16/03/2016,96,96.949997,94.199997,96.25,82.652794,7989075
17/03/2016,97,97.849998,94.800003,95.25,81.79406,7773639
18/03/2016,96,97.900002,95,97.300003,83.554451,8703710
21/03/2016,97.5,103.449997,97.449997,103.050003,88.492157,29375155
22/03/2016,103.949997,104.75,102.050003,103.5,88.878578,19537935
23/03/2016,103.949997,106.400002,103.099998,106,91.025398,16253835
28/03/2016,106.550003,107.349998,103.349998,104.75,89.951996,14057333
29/03/2016,105.400002,108.150002,104.699997,106.650002,91.583595,15694762
30/03/2016,108,108.650002,107.150002,108.050003,92.78582,9151838
31/03/2016,108.949997,109.400002,106.949997,108.599998,93.25811,15686326
01/04/2016,108.400002,110.849998,107.800003,110.25,94.675018,11800622
04/04/2016,111,111,109.400002,110.099998,94.546204,6908274
05/04/2016,109,110.5,108.050003,108.75,93.386925,9662126
06/04/2016,109,109.300003,106.099998,107.550003,92.356445,10307969
07/04/2016,107.550003,108.849998,106.199997,106.949997,91.841194,6203145
08/04/2016,106.349998,107.599998,106.349998,107.050003,91.927078,6460136
11/04/2016,107.900002,110.25,106.699997,109.75,94.245651,10123415
12/04/2016,110.650002,112.800003,110.050003,111.349998,95.619614,14630480
13/04/2016,112.5,112.900002,110,110.349998,94.76088,19080996
18/04/2016,109.25,111.199997,108.300003,109.300003,93.859215,7797964
20/04/2016,109.199997,110.050003,107,108.150002,92.871681,9870230
21/04/2016,108.5,108.949997,105.800003,106.550003,91.497704,11429362
22/04/2016,106.550003,106.699997,104.900002,105.349998,90.467232,9210327
25/04/2016,105.400002,107.449997,105.349998,105.949997,90.982475,8358351
26/04/2016,105.300003,107,105.099998,106.800003,91.712395,6925737
27/04/2016,107.650002,109.25,107.300003,107.949997,92.699928,8961742
28/04/2016,107.949997,108.199997,105.150002,105.400002,90.510162,11141016
29/04/2016,106,107.25,104.400002,106.800003,91.712395,9141440
02/05/2016,106.900002,108.150002,105.150002,105.949997,90.982475,11259593
03/05/2016,106.949997,107.400002,104.699997,105.050003,90.209618,7052234
04/05/2016,104.800003,104.800003,101.550003,102,87.590477,6354187
05/05/2016,101.949997,103.599998,100.599998,102.800003,88.277466,7228906
06/05/2016,102.400002,104.599998,101.599998,104.150002,89.436768,5953185
09/05/2016,104.75,105.5,104.400002,104.800003,89.994934,5190590
10/05/2016,104.949997,105.5,103.099998,105.25,90.381363,8355266
11/05/2016,104,104.800003,102.849998,104.199997,89.479683,4750794
12/05/2016,104.199997,105,103.599998,104.150002,89.436768,3361288
13/05/2016,104,104.400002,102.300003,102.849998,88.320412,4318758
16/05/2016,102.900002,103.75,102.300003,103.5,88.878578,4107253
17/05/2016,104.050003,104.050003,102.699997,102.900002,88.36335,4132667
18/05/2016,102.199997,102.800003,100.650002,102.199997,87.762222,4514786
19/05/2016,102.400002,103.900002,101.699997,101.949997,87.547554,4062895
20/05/2016,102.5,102.5,98.949997,99.449997,85.400734,5877875
23/05/2016,100,101.599998,99.050003,100,85.873024,6662120
24/05/2016,100.550003,102.449997,99.550003,101.599998,87.247002,6597682
25/05/2016,103.599998,105.349998,94.550003,97.25,83.51152,49190782
26/05/2016,99,104.75,97.349998,104.199997,89.479683,42430725
27/05/2016,105.099998,107.25,104.550003,106.800003,91.712395,17461546
30/05/2016,107.300003,107.449997,105.099998,106.050003,91.068359,8731313
31/05/2016,106.099998,109.349998,105.050003,108.949997,93.558662,14266518
01/06/2016,110,111.699997,103.849998,104.449997,89.694374,29231139
02/06/2016,104.150002,105.949997,102.949997,105.550003,90.638985,11365621
03/06/2016,106,107,105.550003,106.449997,91.411835,6334403
06/06/2016,106.5,106.800003,104.400002,105.300003,90.424309,6217359
07/06/2016,105.650002,106.699997,105.300003,106.199997,91.197144,5123098
08/06/2016,106.050003,106.5,104.800003,105.75,90.81073,5291044
09/06/2016,105.949997,107.849998,105,107.099998,91.970016,5621676
10/06/2016,107.599998,108.199997,104.650002,105.25,90.381363,9437337
13/06/2016,104.25,105.699997,103.699997,105.25,90.381363,6817246
14/06/2016,105.099998,105.800003,104.449997,105,90.166679,4445501
15/06/2016,105,105.400002,102.199997,103,88.449211,12879690
16/06/2016,103,103.050003,97.900002,99.400002,85.35778,17627055
17/06/2016,100.25,100.5,97.349998,98.75,84.799614,16794464
20/06/2016,98,100.400002,97.5,99.699997,85.615402,13167528
21/06/2016,100.050003,102.550003,99.849998,102.300003,87.848114,15447243
22/06/2016,102.5,102.5,99.550003,99.900002,85.787155,7816718
23/06/2016,99.900002,100,98.650002,99.199997,85.186043,7523916
24/06/2016,96,96.900002,91.150002,96.25,82.652794,15373031
27/06/2016,96,98.099998,95.900002,97.349998,83.597382,7465608
28/06/2016,98.550003,99.300003,98.099998,98.949997,84.971344,8731751
29/06/2016,99.599998,100.349998,98.599998,99,85.014297,8080510
30/06/2016,99.550003,100,98.099998,98.349998,84.456116,9506521
01/07/2016,99.099998,100.699997,98.800003,99.400002,85.35778,14891679
04/07/2016,100.449997,100.449997,97.5,97.800003,83.983826,12267279
05/07/2016,96,96,92,92.300003,79.260818,23064489
07/07/2016,92,93.900002,89.550003,93.050003,79.904861,35587312
08/07/2016,93.800003,94.300003,92.199997,93.800003,80.548912,12695326
11/07/2016,95,95.199997,92.5,93.349998,80.162476,17792001
12/07/2016,94.300003,94.699997,93.25,93.599998,80.377159,11819301
13/07/2016,93.050003,93.449997,90.599998,90.949997,78.902351,17827050
14/07/2016,91.5,92.300003,91.099998,91.5,79.379494,9651145
15/07/2016,91.900002,92.449997,91.050003,91.699997,79.552994,7126799
18/07/2016,92.400002,93.849998,92,93,80.680794,10438770
19/07/2016,93.75,94.300003,92.699997,93.449997,81.071182,7367070
20/07/2016,93.849998,93.900002,92.900002,93.449997,81.071182,8335674
21/07/2016,93.5,97.400002,92.300003,96.849998,84.020805,45285023
22/07/2016,98.25,98.699997,96.400002,96.699997,83.890663,26362738
25/07/2016,97,97.199997,95.199997,96.150002,83.413528,11184781
26/07/2016,96.449997,96.5,94.150002,94.400002,81.89534,14230698
27/07/2016,94.800003,95.650002,94,94.699997,82.155602,7546601
28/07/2016,95.199997,95.300003,93.800003,94.099998,81.635086,11497983
29/07/2016,94.300003,96.199997,93.5,95.25,82.632744,12674093
01/08/2016,96.349998,97.099998,91.25,91.599998,79.46624,28961932
02/08/2016,90.900002,90.900002,87.150002,88.150002,76.473244,23336733
03/08/2016,88.099998,88.25,85.199997,85.5,74.174278,16672060
04/08/2016,87,87.25,85.25,86.300003,74.868301,13054400
05/08/2016,87,88.400002,86.400002,88.099998,76.429863,13153536
08/08/2016,88.550003,89.900002,88.199997,89.150002,77.340782,11348419
09/08/2016,89.5,89.849998,88.25,89.5,77.644417,9598799
10/08/2016,89.949997,90.900002,87.550003,87.949997,76.299736,10045891
11/08/2016,87.550003,87.699997,85.550003,87.199997,75.649086,9501768
12/08/2016,87.699997,88.099998,86.300003,86.650002,75.171951,13471081
16/08/2016,86.900002,87.25,86,86.650002,75.171951,8295866
17/08/2016,86.349998,87.449997,86.25,86.699997,75.215309,6643927
18/08/2016,86.849998,88.550003,86.800003,87.550003,75.952736,9673093
19/08/2016,87.849998,88.050003,86.650002,87,75.475578,7638545
22/08/2016,87.449997,87.449997,86.300003,87.099998,75.562332,6721342
23/08/2016,87.199997,88,86.599998,87.849998,76.21299,5890988
24/08/2016,87.849998,88.949997,87.75,88.550003,76.820267,5912781
25/08/2016,89,89.400002,85.849998,86.550003,75.085197,11285909
26/08/2016,87.050003,88,86.849998,87.699997,76.082855,5311355
29/08/2016,87.800003,89.25,86.900002,87.900002,76.256363,10297523
30/08/2016,87.900002,88.949997,87.800003,88.400002,76.690132,5669974
31/08/2016,88.5,89.300003,86.949997,87.550003,75.952736,12220817
01/09/2016,87.699997,87.849998,83.5,83.800003,72.699463,16498611
02/09/2016,83.599998,83.699997,82.25,83,72.00544,10857653
06/09/2016,83.300003,85.949997,83.199997,85.75,74.391159,9327213
07/09/2016,86,88.75,85.550003,88.5,76.776878,11230962
08/09/2016,88.650002,88.650002,87.400002,87.75,76.126228,6858011
09/09/2016,87.900002,88.75,86.150002,87.25,75.692467,8730640
12/09/2016,85.25,85.400002,83.25,83.449997,72.395836,10102310
14/09/2016,83.900002,84.800003,83.650002,84.400002,73.219986,5079727
15/09/2016,82.800003,83,80.599998,81.599998,70.790886,24953966
16/09/2016,81.699997,82.449997,80,81.099998,70.357132,17923252
19/09/2016,81.5,84.849998,81.400002,84.599998,73.393494,17605080
20/09/2016,84.900002,85.5,83.599998,84.050003,72.916351,7983834
21/09/2016,84,84.599998,82.5,82.699997,71.745178,8204310
22/09/2016,84,84.449997,82.849998,83.949997,72.82959,7863354
23/09/2016,83.800003,83.800003,82.400002,82.650002,71.701797,6965998
26/09/2016,82.449997,82.599998,81.550003,81.800003,70.964401,5604720
27/09/2016,82.300003,82.449997,81.050003,81.449997,70.660759,4298620
28/09/2016,81.699997,82.25,81.150002,81.849998,71.007774,5888057
29/09/2016,82.5,82.599998,75.849998,76.449997,66.323074,25942259
30/09/2016,76.449997,80.25,75.050003,79.599998,69.055817,17726459
03/10/2016,79.150002,83.449997,79.099998,83.099998,72.092194,15146036
04/10/2016,83.25,83.25,80.599998,81.349998,70.574005,9924305
05/10/2016,81,82.400002,81,81.650002,70.834274,7890459
06/10/2016,82,83.349998,80.199997,80.800003,70.096863,9686492
07/10/2016,81.199997,81.5,80.599998,81.199997,70.443871,4109674
10/10/2016,81.849998,81.849998,80.099998,80.75,70.053482,4582597
13/10/2016,80.449997,80.949997,78.550003,79.400002,68.882324,9111707
14/10/2016,79.449997,81.199997,79.099998,80.650002,69.966728,5534240
17/10/2016,80.699997,82.25,80.199997,81.599998,70.790886,8163161
18/10/2016,82.400002,84,82.400002,83.849998,72.742851,12181856
19/10/2016,84.400002,84.900002,83.900002,84.349998,73.176598,6681033
20/10/2016,84.699997,86.400002,84.400002,85.699997,74.347786,10381584
21/10/2016,86.449997,87.400002,85.949997,87.050003,75.518959,11706419
24/10/2016,87.400002,88.349998,86.199997,88.050003,76.386505,11364973
25/10/2016,88,88.150002,86.349998,87.650002,76.039482,6574506
26/10/2016,87.349998,88.199997,86.699997,87.199997,75.649086,6960265
27/10/2016,86.599998,87.150002,84.699997,84.900002,73.65377,8381704
28/10/2016,85,90.75,84.849998,90.25,78.295067,23011807
01/11/2016,91.5,92.599998,89.599998,90.099998,78.164932,17959653
02/11/2016,89,91.150002,87.900002,89.849998,77.948044,9715881
03/11/2016,89.849998,92.5,89.5,91.300003,79.205986,19000581
04/11/2016,91.949997,92.449997,89.199997,90.900002,78.858971,13973645
07/11/2016,91.900002,92.300003,89.199997,89.449997,77.601044,8246926
08/11/2016,89.5,92.150002,88.150002,91.75,79.596375,25643558
09/11/2016,83.550003,92,82.699997,91.400002,79.292732,19492970
10/11/2016,92.199997,93.5,88.800003,89.400002,77.557671,13694262
11/11/2016,88.5,89.949997,87,87.349998,75.779213,11917291
15/11/2016,87.349998,87.349998,81.5,82.650002,71.701797,11732021
16/11/2016,83.800003,84.150002,77.800003,79,68.535309,15418449
17/11/2016,79,80.150002,78,78.800003,68.361794,9769230
18/11/2016,79.300003,80.400002,78.650002,79.650002,69.09919,7590789
21/11/2016,80.5,80.5,75.5,75.849998,65.802559,11381674
22/11/2016,76.699997,76.900002,73.5,75.599998,65.585678,16820607
23/11/2016,76.199997,77.75,74.849998,77.199997,66.973724,10031839
24/11/2016,77.5,77.5,75.400002,75.650002,65.629059,18199666
25/11/2016,76.400002,77.699997,75.650002,77,66.800232,9725101
28/11/2016,77.849998,78.5,77.050003,78.150002,67.79789,8574030
29/11/2016,78.599998,81.150002,78.25,79.900002,69.316086,10406070
30/11/2016,80.099998,80.599998,79.150002,79.5,68.96907,8910488
01/12/2016,80,80.099998,77.300003,77.550003,67.277374,14821619
02/12/2016,77.650002,78.75,74.300003,74.699997,64.804893,17264782
05/12/2016,75.550003,77.5,74.800003,77.199997,66.973724,9434046
06/12/2016,77.699997,79,76.349998,78.050003,67.711143,9658215
07/12/2016,78.150002,78.5,76.150002,76.699997,66.539963,7101836
08/12/2016,77.300003,78.599998,77.099998,77.900002,67.581001,6327162
09/12/2016,78,79.949997,77.800003,79.550003,69.012444,7858724
12/12/2016,79,80.199997,78.550003,79.5,68.96907,9402280
13/12/2016,79.800003,79.949997,77.099998,77.900002,67.581001,5793135
14/12/2016,78,78.300003,76.849998,77.199997,66.973724,4617544
15/12/2016,76.050003,78.75,76.050003,77.800003,67.494263,4894002
16/12/2016,78.25,78.400002,77.199997,77.650002,67.36412,6095452
19/12/2016,77.900002,79.900002,77.300003,78.699997,68.275032,9584506
20/12/2016,79.349998,79.5,76.550003,76.900002,66.71347,7059007
21/12/2016,77.5,78.449997,77.300003,77.550003,67.277374,4725054
22/12/2016,77.849998,79.800003,76.849998,77.449997,67.19062,7630191
23/12/2016,77.199997,78.650002,76.150002,77.699997,67.407501,7685714
26/12/2016,77.800003,77.900002,76.25,76.5,66.366463,4475664
27/12/2016,76.5,78.400002,75.050003,78.050003,67.711143,7041030
28/12/2016,78.5,78.699997,77.800003,78.25,67.884644,5706223
29/12/2016,77.25,79.400002,77.25,79,68.535309,7832998
30/12/2016,79.900002,80.900002,79.650002,80.099998,69.489586,13540359
02/01/2017,80.5,81.5,79.150002,81,70.270363,12823600
03/01/2017,81.400002,81.550003,80.449997,81.050003,70.313751,7610206
04/01/2017,81.5,84.550003,81.25,83.849998,72.742851,14148219
05/01/2017,84.650002,84.949997,82.800003,83.949997,72.82959,10474833
06/01/2017,84.199997,85.699997,83.150002,85.300003,74.000771,10508449
09/01/2017,85.849998,85.849998,84.599998,84.949997,73.697128,4664481
10/01/2017,85.199997,85.300003,84.199997,84.949997,73.697128,3603984
11/01/2017,85,86.300003,84.949997,85.599998,74.261032,4205231
12/01/2017,85.5,85.599998,83.800003,84.300003,73.133247,4126412
13/01/2017,84.300003,85.199997,83.349998,84.550003,73.350113,6292908
16/01/2017,84.099998,86.099998,84.050003,85.599998,74.261032,4419274
17/01/2017,86,86.849998,85.349998,85.949997,74.564667,4294619
18/01/2017,85.900002,87.099998,85.050003,86.900002,75.388824,7922410
19/01/2017,86.900002,87.650002,86.199997,87.050003,75.518959,6301901
20/01/2017,86.699997,87.400002,85.25,85.550003,74.217659,6238368
23/01/2017,86.150002,86.699997,85.400002,86.300003,74.868301,4001215
24/01/2017,86.349998,89,86.349998,88.699997,76.950394,10324396
25/01/2017,89,89.349998,86.300003,86.550003,75.085197,20149829
27/01/2017,86.599998,92.75,86.599998,92.449997,80.203644,37997580
30/01/2017,91.75,93.150002,91.300003,92.050003,79.856636,10516489
31/01/2017,91.75,91.849998,89.699997,90.75,78.728844,10318662
01/02/2017,91.599998,93.099998,90.599998,92.150002,79.94339,20594085
02/02/2017,93,95.099998,91.550003,94.849998,82.285728,16589288
03/02/2017,95,95.699997,93.699997,94.5,81.982101,9703414
06/02/2017,94.5,95.949997,94.5,95.099998,82.502625,9884473
07/02/2017,95,95.349998,92.900002,94.050003,81.591705,9030584
08/02/2017,95.300003,97,93.800003,95.349998,82.719498,17150699
09/02/2017,96.199997,96.75,94.400002,95.300003,82.676132,8401454
10/02/2017,95.699997,95.699997,92.400002,92.949997,80.637421,12076962
13/02/2017,93.349998,93.599998,91.400002,92.099998,79.900017,7004255
14/02/2017,91.900002,92.800003,90.650002,92.349998,80.11689,5806015
15/02/2017,92.449997,94.599998,91.300003,93.199997,80.854294,15411491
16/02/2017,93.5,94.400002,92.699997,94.25,81.765213,6246431
17/02/2017,94.25,94.900002,93.25,93.900002,81.461578,4167887
20/02/2017,93.900002,94.75,93.199997,94.5,81.982101,4353919
21/02/2017,94.800003,96,94,95.099998,82.502625,6703138
22/02/2017,95.150002,95.849998,92,92.5,80.247017,8164293
23/02/2017,92.5,92.75,90.199997,90.550003,78.555336,12335146
27/02/2017,91,91.25,88.650002,89,77.210663,10941288
28/02/2017,89.5,91,88.949997,90.650002,78.642082,6712922
01/03/2017,91.449997,91.849998,89,89.199997,77.384155,8753905
02/03/2017,89.699997,90.199997,86.949997,87.349998,75.779213,7239228
03/03/2017,87.650002,88.400002,86.199997,87.349998,75.779213,6648170
06/03/2017,88,90.900002,87.5,90.5,78.511955,10795662
07/03/2017,92,93.400002,91,91.199997,79.119225,21140168
08/03/2017,91.800003,91.800003,89.300003,91.099998,79.032478,8249126
09/03/2017,90.349998,91.349998,90,90.449997,78.468567,4067316
10/03/2017,91.050003,91.099998,90,90.550003,78.555336,4731348
14/03/2017,93,93,90.5,90.800003,78.772217,6472473
15/03/2017,90.599998,91.849998,90.300003,91.099998,79.032478,5493508
16/03/2017,92,92.900002,91.400002,91.900002,79.726509,11583884
17/03/2017,92.150002,92.400002,90.349998,90.900002,78.858971,8589452
20/03/2017,90.900002,90.949997,89.050003,89.25,77.427536,5646090
21/03/2017,89.199997,89.199997,88.099998,88.75,76.993767,6176030
22/03/2017,88,88.400002,86.550003,87.150002,75.605713,8997482
23/03/2017,87.099998,87.800003,86.699997,87.050003,75.518959,8795773
24/03/2017,87.5,88.400002,87,87.349998,75.779213,6965006
27/03/2017,87.099998,87.300003,85.449997,85.75,74.391159,8776245
28/03/2017,86.75,87,86.050003,86.449997,74.998428,8606547
29/03/2017,86.800003,87.449997,80.75,84,72.872978,27831051
30/03/2017,83.5,85,82.650002,83,72.00544,18429464
31/03/2017,83.800003,85,83.150002,84.550003,73.350113,10622310
03/04/2017,85,85.599998,83.900002,84.099998,72.95974,8048802
05/04/2017,85.550003,86.099998,84.699997,84.900002,73.65377,8826665
06/04/2017,84.900002,84.900002,84,84.300003,73.133247,7636744
07/04/2017,84.300003,84.900002,83.300003,83.599998,72.525955,8214638
10/04/2017,84.199997,84.349998,82,82.400002,71.484932,14997180
11/04/2017,82.75,83.599998,82.099998,82.400002,71.484932,9681956
12/04/2017,82.900002,83.900002,82.300003,82.599998,71.658424,11842227
13/04/2017,82.949997,83.699997,82.5,82.75,71.788559,6268883
17/04/2017,83.699997,83.699997,82.400002,82.75,71.788559,5191816
18/04/2017,83,83.349998,81.150002,81.599998,70.790886,8142606
19/04/2017,82,82.349998,81.050003,81.300003,70.530624,7239622
20/04/2017,81.5,82.300003,81.400002,81.949997,71.094528,8650930
21/04/2017,82.199997,85.650002,82,85.25,73.957397,18736373
24/04/2017,86.400002,87.599998,85.650002,87.25,75.692467,16465458
25/04/2017,87.849998,88.5,87.099998,88.150002,76.473244,15384659
26/04/2017,88.5,88.849998,86.25,87.849998,76.21299,7376461
27/04/2017,87.5,87.849998,86.5,86.699997,75.215309,4971287
28/04/2017,87,87,84.900002,85.400002,74.087517,6949719
02/05/2017,85.900002,85.949997,82.900002,83.650002,72.569336,10832676
03/05/2017,83.400002,83.75,82.650002,82.800003,71.83194,4338219
04/05/2017,82.699997,84.400002,82.699997,83.25,72.222321,7670618
05/05/2017,83.300003,84.400002,82.300003,83.199997,72.17894,9585864
08/05/2017,83.199997,84.300003,82.650002,83.400002,72.352448,8573332
09/05/2017,83.400002,83.800003,82.75,82.900002,71.918686,7683180
10/05/2017,83.050003,86,83.050003,85.550003,74.217659,16320703
11/05/2017,86,87.150002,85.800003,86.550003,75.085197,10349937
12/05/2017,86.900002,86.900002,85.099998,85.699997,74.347786,7865319
15/05/2017,86,86.5,85.449997,86.199997,74.781563,5372613
16/05/2017,86.5,87,86.150002,86.650002,75.171951,5662997
17/05/2017,86.650002,88.5,86.050003,88.050003,76.386505,11096513
18/05/2017,87.400002,88.449997,85.400002,86.349998,74.91169,9222882
19/05/2017,86.699997,87.400002,84.25,85.150002,73.870644,5458428
22/05/2017,85.800003,86.449997,84.800003,86,74.608047,7594237
23/05/2017,86.050003,86.300003,84,84.400002,73.219986,7491795
24/05/2017,84.599998,84.900002,81.5,82.349998,71.441536,9006094
25/05/2017,83.400002,87.75,81.800003,86.150002,74.738174,22003288
26/05/2017,87.849998,93.150002,87.75,91.550003,79.422867,40073258
29/05/2017,92.449997,93.849998,90.75,91.75,79.596375,16322830
30/05/2017,92.199997,94,91.599998,93.75,81.331444,13966131
31/05/2017,93.949997,95.900002,93.099998,94.5,81.982101,17929974
01/06/2017,94.449997,94.800003,90.099998,91.099998,79.032478,26150734
02/06/2017,91.5,93.300003,91.150002,92.849998,80.550667,9141588
05/06/2017,93.449997,93.75,92.5,93,80.680794,7480770
06/06/2017,92.5,93.449997,90.900002,91.849998,79.683121,8450503
07/06/2017,92,93,91.699997,92.75,80.463913,5158845
08/06/2017,92.75,95.699997,92.699997,94.949997,82.372482,14522631
09/06/2017,95.25,95.25,94,94.900002,82.329117,8610549
12/06/2017,94,94.849998,93.449997,94.25,81.765213,5391051
13/06/2017,95.650002,96.699997,94.75,95.25,82.632744,11899502
14/06/2017,94.849998,95.25,93.099998,94.699997,82.155602,8034180
15/06/2017,94.5,95.75,93.849998,94.25,81.765213,5917699
16/06/2017,94.5,95.300003,94,94.199997,81.721832,5517567
19/06/2017,94.199997,94.900002,93.800003,94.050003,81.591705,3174802
20/06/2017,94.199997,94.349998,92.800003,93,80.680794,9109824
21/06/2017,93,94.199997,92.5,93.699997,81.288078,6444074
22/06/2017,93.699997,94.25,92.900002,93.400002,81.027809,6118660
23/06/2017,93.5,93.550003,92.050003,92.349998,80.11689,5044460
27/06/2017,92.349998,92.75,90.300003,91.099998,79.032478,5489761
28/06/2017,90.900002,92.75,90,92.199997,79.986755,4941835
29/06/2017,92.75,94,92.5,93.449997,81.071182,9459842
30/06/2017,92.199997,94.150002,91.599998,93.849998,81.418198,6245662
03/07/2017,93.949997,101.400002,93.550003,100.300003,87.013809,49834227
04/07/2017,101.949997,102.099998,97.949997,99.349998,86.189644,30197857
05/07/2017,99.550003,102.150002,99.400002,101.599998,88.141609,18028341
06/07/2017,102.300003,103.300003,101.849998,102.199997,88.662109,10803568
07/07/2017,102.5,104.5,100.699997,103.900002,90.136932,15768247
10/07/2017,104.050003,105.650002,102.199997,105.150002,91.221352,2476442
11/07/2017,105.050003,107.449997,103.599998,105.099998,92.551056,23424456
12/07/2017,104.599998,106.699997,104.25,106.400002,93.695839,11800808
13/07/2017,106.099998,107.199997,105,106.25,93.563744,8000631
14/07/2017,106,106.400002,104.300003,105.400002,92.815231,8917458
17/07/2017,105.400002,108.449997,105.199997,108.25,95.324944,8727138
18/07/2017,108.699997,109.699997,104.699997,105.449997,92.859268,24462410
19/07/2017,106.949997,107.599998,106.099998,106.849998,94.092102,9077980
20/07/2017,107.300003,107.400002,105.699997,105.900002,93.255539,6831287
21/07/2017,105.800003,106.400002,100,103.199997,90.877914,23377063
24/07/2017,102,104.699997,101.699997,104,91.582397,16055304
25/07/2017,104.949997,105.5,104.199997,104.949997,92.418961,7841010
26/07/2017,105,106.550003,104.949997,106.150002,93.475685,8240895
27/07/2017,106.449997,106.800003,104.650002,105,92.462997,6540993
28/07/2017,104.699997,109.900002,104.099998,109.400002,96.337631,11446452
31/07/2017,109.949997,110.5,108.25,109.5,96.425697,10272829
01/08/2017,110.050003,112.099998,108.699997,111.050003,97.790634,17902937
02/08/2017,111,111,108.599998,109.349998,96.29361,7178227
03/08/2017,109.25,110.449997,108.099998,108.900002,95.897331,7702651
04/08/2017,108.849998,109.900002,106.300003,109.199997,96.161507,8732032
07/08/2017,108.900002,111.5,108.699997,111.199997,97.922722,8251146
08/08/2017,111,114.349998,110.099998,112.099998,98.715256,18644815
09/08/2017,112,112.650002,108.75,109.599998,96.513756,7762163
10/08/2017,108,108.650002,101.25,103.449997,91.098061,12732108
11/08/2017,101,105.599998,98.599998,102.650002,90.393585,14750459
14/08/2017,104.699997,106.849998,104.300003,104.75,92.242844,7301143
16/08/2017,105.5,106,102.050003,104.75,92.242844,10846570
17/08/2017,105,106.949997,104.349998,105.300003,92.727188,6252193
18/08/2017,105,105,102.400002,103.650002,91.274185,6181540
21/08/2017,104,104.5,101.5,102.25,90.041344,5274904
22/08/2017,103.400002,103.650002,100,100.349998,88.368202,8361844
23/08/2017,101,103.199997,101,102.699997,90.437614,6311204
24/08/2017,103.599998,103.650002,102.199997,103,90.70179,4476831
28/08/2017,103.599998,106.25,103.25,105.699997,93.079414,11192216
29/08/2017,105.5,106.75,104.349998,105.050003,92.507027,6338922
30/08/2017,106.25,108.25,105.800003,107.300003,94.488373,7845394
31/08/2017,107.400002,107.800003,106.199997,107.099998,94.312256,10584662
01/09/2017,107.800003,113.25,107.199997,112.849998,99.375702,19530546
04/09/2017,113.849998,115.800003,111.300003,113.349998,99.816002,20583715
05/09/2017,114.449997,114.900002,112.050003,113,99.50779,8912033
06/09/2017,112.650002,113.800003,111.400002,112.150002,98.759293,9787115
07/09/2017,112.5,113.349998,110.800003,111.900002,98.539131,4923774
08/09/2017,113.150002,116.800003,112.699997,115.150002,101.401093,21891300
11/09/2017,116.75,117.400002,115.75,116.199997,102.325722,9303218
12/09/2017,116.900002,118.75,116.199997,118.300003,104.174973,11942253
13/09/2017,118.699997,119.150002,117.099998,117.699997,103.646622,9561526
14/09/2017,117.5,119.099998,116.699997,117.050003,103.074226,6972335
15/09/2017,116.199997,117.800003,114.650002,116.800003,102.854073,7428450
18/09/2017,117.449997,119.349998,117.300003,118.550003,104.395126,5864762
19/09/2017,118.949997,118.949997,117.150002,118.150002,104.042877,4525726
20/09/2017,118.349998,120.199997,118.349998,119.349998,105.099602,8463597
21/09/2017,119.75,120.050003,115.900002,117.300003,103.29438,11036870
22/09/2017,117,117,113.699997,114.300003,100.652588,7710546
25/09/2017,114.449997,114.449997,109.699997,113,99.50779,10393468
26/09/2017,113,114.699997,112.75,113.5,99.948097,5815090
27/09/2017,113.75,114.449997,111.400002,112.199997,98.803314,8792751
28/09/2017,113.699997,117.75,112.300003,116.75,102.810043,19023736
29/09/2017,118.400002,123.900002,118,123.099998,108.401855,25414993
03/10/2017,125.75,126.199997,121.25,122.449997,107.82946,19862570
04/10/2017,122.900002,123.949997,121.25,122.5,107.873497,7026163
05/10/2017,123.5,124.849998,122,122.5,107.873497,6382418
06/10/2017,123.400002,125.25,122.650002,124.849998,109.942909,9362645
09/10/2017,125,125.5,122.800003,123.800003,109.018272,6174955
10/10/2017,123.800003,126.900002,123.300003,126.449997,111.351868,9899758
11/10/2017,127,127.449997,122.400002,124.550003,109.678734,11182886
12/10/2017,125.199997,125.849998,123.900002,125.349998,110.383202,6036207
13/10/2017,126.550003,126.849998,124.650002,125.349998,110.383202,4216350
16/10/2017,125.800003,128,124.449997,127.449997,112.23246,6794943
17/10/2017,127.400002,128.899994,126.300003,128.449997,113.113068,6854521
18/10/2017,127.800003,131,126.699997,130.600006,115.006363,8381228
19/10/2017,130.449997,130.449997,128.350006,129.149994,113.729477,1483924
23/10/2017,128.100006,129.699997,127.349998,128.199997,112.892906,8245170
24/10/2017,128.899994,129.350006,127.5,128.600006,113.245155,4188824
25/10/2017,129.350006,130.399994,126.699997,128.5,113.157089,8699873
26/10/2017,128.449997,133.899994,127.550003,131.149994,115.490685,16059722
27/10/2017,131.75,131.75,126.900002,127.800003,112.54068,9672231
30/10/2017,128.449997,129.399994,127.900002,128.699997,113.333214,5067735
31/10/2017,129.25,131.5,128.5,131.199997,115.534706,7814216
01/11/2017,131.800003,132.800003,125.050003,126.449997,111.351868,13531099
02/11/2017,126.800003,128.800003,124.25,124.599998,109.722748,7928131
03/11/2017,124.599998,125.300003,123.099998,123.650002,108.886177,6614348
06/11/2017,123.900002,126.800003,122.699997,125.699997,110.691414,8459765
07/11/2017,126.050003,126.699997,121.050003,122.050003,107.477234,11984860
08/11/2017,122.800003,124.349998,117.050003,119.150002,104.923485,32028125
09/11/2017,120,121.449997,112.099998,115.349998,101.577202,21316008
10/11/2017,116.75,117.050003,111.099998,111.949997,98.583168,16705495
13/11/2017,112.449997,113.75,107.699997,113.300003,99.77198,21319577
14/11/2017,114.75,114.900002,112.25,113.949997,100.34436,15327606
15/11/2017,114,115.75,112.75,113.400002,99.860031,11164273
16/11/2017,114.300003,115,111.849998,114.199997,100.564514,8342249
17/11/2017,115.699997,117.199997,115.5,116,102.149597,10574972
20/11/2017,116.400002,117.25,114.349998,114.949997,101.22496,9459111
21/11/2017,115.349998,115.599998,113.599998,114.75,101.048843,11545276
22/11/2017,114.199997,114.699997,110.699997,113.349998,99.816002,23545581
23/11/2017,113.900002,115,112.300003,114.699997,101.004814,13659083
24/11/2017,114,119.400002,114,118.449997,104.307068,15401284
27/11/2017,118.300003,124,118,123.599998,108.842148,24232866
28/11/2017,123.75,123.75,120.5,121.400002,106.904839,9602574
29/11/2017,121.300003,122.25,119.699997,120.849998,106.420494,9549129
30/11/2017,120.400002,120.449997,117.349998,117.849998,103.778702,13517247
01/12/2017,119.199997,123.199997,119.199997,120.050003,105.716034,21469285
04/12/2017,122.449997,122.449997,115.400002,116.349998,102.457802,14612462
05/12/2017,116.349998,116.349998,112.550003,114.050003,100.432426,15039479
06/12/2017,114,115.949997,112.5,114.449997,100.784668,9390524
07/12/2017,114.849998,117.349998,114.599998,116.900002,102.942139,8391644
08/12/2017,117.5,119.349998,117.099998,118.550003,104.395126,10420608
11/12/2017,120.349998,120.400002,117.400002,117.900002,103.822739,7720936
12/12/2017,117.449997,117.699997,113.199997,113.800003,100.212273,12071975
13/12/2017,113.900002,115,112.599998,114.050003,100.432426,10933962
14/12/2017,114.5,114.800003,111.099998,112.050003,98.671219,11950647
15/12/2017,114,114.400002,112.300003,112.75,99.287651,9188447
18/12/2017,112,115.949997,105.949997,114.300003,100.652588,16437780
19/12/2017,115.25,118.550003,114.5,118.150002,104.042877,12707741
20/12/2017,118.099998,119.5,117.199997,117.800003,103.73468,8412028
21/12/2017,117.949997,119.050003,116.699997,117.550003,103.514526,9259990
22/12/2017,118.400002,118.849998,116.400002,117.599998,103.558556,6908953
26/12/2017,118.599998,120.349998,118,119.150002,104.923485,8415655
27/12/2017,119.25,120.199997,117.5,118.599998,104.439156,8897773
28/12/2017,118.650002,118.800003,117.199997,117.699997,103.646622,5166001
29/12/2017,118,120,117.199997,119.099998,104.879448,7755733
01/01/2018,119.650002,122.5,118.050003,118.650002,104.483192,10218058
02/01/2018,119.25,123.849998,117,123.349998,108.622009,27656711
03/01/2018,124.75,125.800003,123.75,124.5,109.634697,22686568
04/01/2018,125.25,127.349998,123.800003,126.949997,111.79216,17032019
05/01/2018,127,128.199997,126,127.449997,112.23246,8969607
08/01/2018,127.900002,129,126.900002,128.449997,113.113068,8807108
09/01/2018,130.199997,132.600006,129.5,130.5,114.918297,20917588
10/01/2018,130.300003,130.5,126.699997,127.949997,112.672768,8194879
11/01/2018,127,128.899994,126.050003,127.050003,111.880226,10204498
12/01/2018,127.5,129.149994,125.099998,128.649994,113.289177,8882198
15/01/2018,128.949997,129.350006,125,126.099998,111.043655,9735164
16/01/2018,126.099998,126.400002,121.599998,122.300003,107.69738,11527983
17/01/2018,122.099998,124.800003,119.5,124.449997,109.59066,10469892
18/01/2018,124.199997,125.300003,120.099998,120.900002,106.464539,10351616
19/01/2018,120.800003,121.5,118.699997,121.050003,106.596626,9786893
22/01/2018,121.650002,121.949997,119.199997,121.050003,106.596626,7431883
23/01/2018,120.5,125.300003,120.199997,124,109.194389,10962021
24/01/2018,124,125.150002,122.300003,123.300003,108.577972,12152677
25/01/2018,124.25,124.400002,121.599998,122.300003,107.69738,11367419
29/01/2018,122.900002,126.550003,122.650002,125.400002,110.427238,13757107
30/01/2018,125.800003,126.650002,123.550003,125.75,110.735443,12328142
31/01/2018,125.400002,126.550003,124.400002,126.099998,111.043655,10040333
01/02/2018,126.949997,126.949997,116.300003,123.349998,108.622009,15946691
02/02/2018,124.300003,126.650002,118.5,122.300003,107.69738,38049390
05/02/2018,118.900002,130,118.349998,129.350006,113.905602,22945256
06/02/2018,123,128.699997,120.800003,126.900002,111.748138,24648572
07/02/2018,129.949997,134,128.649994,132.899994,117.031731,25341574
08/02/2018,133.75,136.600006,133.100006,134.149994,118.132477,24389428
09/02/2018,131,135.75,131,134.199997,118.176514,17062623
12/02/2018,135.399994,136.75,132.699997,133.300003,117.38398,11892807
14/02/2018,135.449997,138.75,134.199997,137.399994,120.994415,27373293
15/02/2018,138.449997,139.300003,136.199997,137.25,120.862343,14544353
16/02/2018,138.600006,138.899994,133.399994,133.949997,117.956367,14941293
19/02/2018,134.449997,134.5,130.649994,132.199997,116.415321,12180808
20/02/2018,132.5,135.350006,131.800003,133.399994,117.472038,9905274
21/02/2018,134,134.899994,131.949997,132.350006,116.547401,9506894
22/02/2018,131.800003,133.350006,131.199997,132.350006,116.547401,10189228
23/02/2018,133,134.899994,132.649994,134.399994,118.352623,7724163
26/02/2018,135.5,137.800003,135.5,136.800003,120.46608,12024593
27/02/2018,137.699997,138.5,136.5,137.699997,121.258621,9397195
28/02/2018,137.350006,142.199997,136.899994,141.5,124.604889,24992386
01/03/2018,142.75,143.899994,140.350006,140.949997,124.120583,19650623
05/03/2018,139.899994,140.649994,138.350006,140.149994,123.416077,14686149
06/03/2018,140.949997,142.899994,139.25,139.850006,123.151909,12648186
07/03/2018,139.949997,142.899994,139.199997,141.25,124.384758,15519404
08/03/2018,143.25,144.850006,142.600006,144.149994,126.938461,19712214
09/03/2018,147,147.449997,144.399994,147,129.448196,30193142
12/03/2018,148,148.600006,144.600006,145.399994,128.039246,17320780
13/03/2018,145.800003,150.449997,143.800003,149.899994,132.001923,24601040
14/03/2018,149.199997,150.300003,148.600006,149.699997,131.825806,11802575
15/03/2018,149.100006,151.649994,148.949997,150.550003,132.574326,13458378
16/03/2018,150.300003,150.600006,146.699997,147.149994,129.580292,14963488
19/03/2018,148,148.350006,144,145.699997,128.303421,17441635
20/03/2018,145.449997,148,144.699997,146,128.567596,11845334
21/03/2018,146.899994,148.800003,146.5,147.5,129.888489,14925709
22/03/2018,148.199997,148.199997,141.550003,142,125.045189,12939722
23/03/2018,140,142.550003,138.199997,142.050003,125.089218,18267529
26/03/2018,143,145.300003,142.199997,144.399994,127.158623,11572005
27/03/2018,145.899994,146.649994,143.050003,144.949997,127.642952,12007027
28/03/2018,144.550003,146.699997,143.899994,145.449997,128.083252,18877771
02/04/2018,146.550003,148.949997,146.149994,148.100006,130.41687,22938236
03/04/2018,147.949997,149.449997,147.350006,147.75,130.108643,14391152
04/04/2018,148.399994,150.600006,145.050003,145.850006,128.435501,20449016
05/04/2018,147.350006,148.649994,146,147,129.448196,11604724
06/04/2018,147.399994,147.399994,143.199997,146.449997,128.963882,12593378
09/04/2018,146.850006,148.949997,145.75,146.350006,128.875809,13175463
10/04/2018,146.899994,147.600006,144,145.300003,127.951172,14915410
11/04/2018,145.899994,146.449997,144.5,144.800003,127.510872,10891005
12/04/2018,145.300003,145.949997,144.100006,145.100006,127.775063,9351738
13/04/2018,145.899994,150.550003,145.5,149.399994,131.56163,27751300
16/04/2018,149.199997,152.5,148.649994,151,132.970581,15482321
17/04/2018,151.600006,152.100006,148.050003,149.399994,131.56163,10260588
18/04/2018,149.850006,151,148.050003,149.399994,131.56163,13484322
19/04/2018,150.649994,151.449997,149.449997,151.100006,133.058655,9206006
20/04/2018,151.449997,156,150.649994,155.550003,136.977325,18945689
23/04/2018,155.949997,159.949997,155.649994,159.449997,140.411667,22119097
24/04/2018,159.899994,161.75,158.199997,159.050003,140.059418,18448201
25/04/2018,158.899994,164.600006,158.399994,164.199997,144.594513,27241565
26/04/2018,164.199997,166.350006,161.25,162.649994,143.229568,21816930
27/04/2018,163.899994,164.449997,161.100006,162,142.657181,9827879
30/04/2018,163.550003,165.550003,162.199997,164.449997,144.814667,9223162
02/05/2018,164.75,166.199997,160.5,161.449997,142.172852,13689459
03/05/2018,162.399994,164.550003,160.800003,163.75,144.198242,14882240
04/05/2018,163.949997,165.5,163.149994,163.949997,144.374359,9143747
07/05/2018,164.75,165.800003,163.550003,165.350006,145.607208,6116182
08/05/2018,166.350006,167.5,164.75,165.550003,145.783325,9015082
09/05/2018,165.550003,165.649994,161.550003,162.100006,142.74527,10939607
10/05/2018,162.949997,163.899994,160.25,160.649994,141.468369,9391475
11/05/2018,161.5,162.25,160.300003,161.850006,142.525101,6824338
14/05/2018,162.449997,162.449997,153.5,155.149994,136.625076,18841306
15/05/2018,154.75,157.550003,148.550003,151,132.970581,19547700
16/05/2018,151.449997,153.949997,149.649994,152.699997,134.467621,11146366
17/05/2018,153.25,155,152.050003,154.300003,135.876572,9656184
18/05/2018,155.100006,155.350006,146.75,148.399994,130.68103,18021955
21/05/2018,147.949997,147.949997,133.350006,134.300003,118.26458,53028114
22/05/2018,132.75,146,132.149994,140.899994,124.076523,65283103
23/05/2018,141.600006,146,141.050003,145.350006,127.995216,28848076
24/05/2018,146.800003,148.75,143.050003,144.5,127.246704,21080165
25/05/2018,145.800003,146,143.199997,145.100006,127.775063,11504412
28/05/2018,146.199997,147.5,145.149994,146.600006,129.095978,10561439
29/05/2018,147.5,150.5,146.100006,149.550003,131.693726,13459379
30/05/2018,148.100006,150.300003,147.100006,149.399994,131.56163,13237333
31/05/2018,150.75,151.25,147.5,148.050003,130.372818,15790863
01/06/2018,148.800003,152,148.75,150.850006,132.838501,16393908
04/06/2018,151.399994,151.800003,146.550003,146.899994,129.360123,9461068
05/06/2018,145.550003,147.5,141.699997,146.199997,128.743713,14155550
06/06/2018,147.75,149.899994,144.5,149.050003,131.253418,13774065
07/06/2018,149.75,150.449997,147.199997,147.800003,130.152679,9139684
08/06/2018,146.550003,147.449997,144.5,145,127.686996,9888275
11/06/2018,145,145.100006,140.5,142.199997,125.221313,12524659
12/06/2018,142.100006,144.899994,141.199997,144.149994,126.938461,12575156
13/06/2018,144.399994,146.149994,141.850006,142.649994,125.617569,12471403
14/06/2018,142.649994,146.149994,141.5,144.949997,127.642952,14625441
15/06/2018,145.199997,145.199997,141.75,142.25,125.265335,9644132
18/06/2018,142.25,143.5,138.449997,138.899994,122.315338,13515380
19/06/2018,139,139.5,135.550003,136.5,120.201889,15102362
20/06/2018,136.949997,138.300003,136,137,120.642197,13655265
21/06/2018,137.050003,138.550003,134.649994,135.100006,118.96907,11600357
22/06/2018,136.149994,136.899994,133.5,136.399994,120.113823,10862164
25/06/2018,136.149994,136.149994,131.350006,132,116.239197,12422965
26/06/2018,132.5,134.149994,131.300003,132.600006,116.767563,13579137
27/06/2018,132.5,132.850006,127.25,129.350006,113.905602,14750455
28/06/2018,128.699997,129.800003,123.25,124.099998,109.282455,16952679
29/06/2018,125.900002,127.199997,124.599998,125.800003,110.77948,15460744
02/07/2018,126.800003,129.949997,126.099998,127.300003,112.10038,15699848
03/07/2018,127.699997,130.300003,124.400002,129.5,114.037689,16965698
04/07/2018,129.300003,129.5,126.550003,127.849998,112.584709,16028413
05/07/2018,127.849998,127.849998,124.699997,125,110.074989,11998683
06/07/2018,125.199997,133.899994,125.050003,132.300003,116.50338,38919706
09/07/2018,134,135.600006,130,130.899994,117.427353,26299208
10/07/2018,131.550003,135,131.5,133.949997,122.43634,19578782
11/07/2018,134.050003,135.600006,132.199997,133.149994,121.705086,16056058
12/07/2018,134.199997,137.100006,133.600006,133.949997,122.43634,16815583
13/07/2018,135.25,136.25,132.050003,132.5,121.11097,12610591
16/07/2018,133.050003,133.449997,120.400002,125.699997,114.895462,30874390
17/07/2018,126,133.899994,125.699997,128.550003,117.500496,53446442
18/07/2018,129.75,129.75,109.300003,110.550003,101.047684,123356257
19/07/2018,112.349998,113.550003,105,105.699997,96.614555,137308183
20/07/2018,106.5,110,105.800003,107.449997,98.214134,60955186
23/07/2018,109,110.400002,107.900002,109.099998,99.722313,34426719
24/07/2018,109.300003,113.25,109.25,112.75,103.058578,33378178
25/07/2018,113.5,113.650002,109.599998,110.150002,100.68206,24700014
26/07/2018,110.650002,113,110.5,112.050003,102.418747,23817204
27/07/2018,112.300003,113.5,111.199997,112.849998,103.149979,20953092
30/07/2018,112.949997,114.699997,111.699997,113,103.287094,22155360
31/07/2018,112.699997,113.449997,110.900002,112.800003,103.104279,19456358
01/08/2018,112.400002,119.400002,112,118.900002,108.679955,64224716
02/08/2018,119.199997,121.349998,116.300003,120.25,109.913918,46700886
03/08/2018,121.5,123.449997,117.699997,118.199997,108.040123,35159097
06/08/2018,118.5,119.800003,116.75,118.25,108.085823,17891904
07/08/2018,118.900002,121.300003,118.300003,119.550003,109.274094,18285125
08/08/2018,120,126.699997,119.050003,125.699997,114.895462,50058805
09/08/2018,126,129.75,124.75,129.25,118.14032,27080247
10/08/2018,129,131.649994,126.5,127.550003,116.586449,27556350
13/08/2018,126.75,128.550003,124.900002,125.5,114.712654,21197774
14/08/2018,125.900002,127.199997,123.75,126,115.169678,17243718
16/08/2018,125.449997,128,125.050003,126.199997,115.352486,12094950
17/08/2018,126.599998,129.199997,126.599998,128.350006,117.317688,13836217
20/08/2018,128.949997,130.199997,127.349998,128.300003,117.271988,13100525
21/08/2018,128.5,129.600006,127.599998,128.699997,117.637596,10482675
23/08/2018,129,132.899994,127.75,132.300003,120.928162,25865132
24/08/2018,131.949997,133.350006,128.600006,129.199997,118.09462,21399785
27/08/2018,130.100006,133.449997,129.600006,132.850006,121.430885,18964772
28/08/2018,134,134.649994,131.75,132.350006,120.973862,16703462
29/08/2018,132.600006,133.350006,131.149994,131.899994,120.562538,13154649
30/08/2018,132,132.699997,130.550003,130.850006,119.602798,14270655
31/08/2018,131.100006,131.75,127.800003,129.050003,117.957512,17591019
03/09/2018,132.899994,135,132.300003,133.449997,121.979309,32752122
04/09/2018,133.949997,134.300003,125.75,127.849998,116.860657,24168492
05/09/2018,127.849998,129,124.550003,127.449997,116.495041,23993277
06/09/2018,128.699997,130.449997,127.75,129.699997,118.551636,12583886
07/09/2018,130.550003,132.649994,129.800003,132,120.653946,15237272
10/09/2018,131.050003,131.800003,129.050003,129.649994,118.505936,9208973
11/09/2018,130.25,131.350006,127.050003,127.75,116.769249,14337826
12/09/2018,127.900002,128.649994,124.75,127.849998,116.860657,15827735
14/09/2018,129.100006,133.149994,129.100006,131.25,119.968414,18660836
17/09/2018,130.600006,130.600006,127.099998,127.449997,116.495041,13287955
18/09/2018,127.75,128.800003,125.800003,126.400002,115.535294,10849235
19/09/2018,127.300003,127.949997,125,125.800003,114.98687,10675955
21/09/2018,126.900002,128.050003,113.300003,122.300003,111.787712,19321909
24/09/2018,122.300003,122.949997,117.849998,120.349998,110.005318,18748891
25/09/2018,119.949997,123.449997,117.900002,121.900002,111.422089,24230423
26/09/2018,122.25,123.300003,119.5,120.650002,110.279541,11082330
27/09/2018,121.400002,122.900002,119.800003,120.400002,110.051025,13346245
28/09/2018,121.25,122,117.550003,119.099998,108.862762,20883121
01/10/2018,118.699997,121.050003,112.25,120.150002,109.82251,33157247
03/10/2018,120.800003,121.400002,118.599998,119.150002,108.908463,17262790
04/10/2018,117.400002,120,115.199997,118.050003,107.903023,18820134
05/10/2018,117.099998,117.949997,101.650002,107.75,98.48835,31157884
08/10/2018,107.75,111.900002,104.099998,109.150002,99.768021,28067992
09/10/2018,110,111.650002,107.300003,110.849998,101.321892,22219546
10/10/2018,110.900002,115.400002,110.550003,114.550003,104.703865,20790100
11/10/2018,109.699997,114.199997,108.25,111.800003,102.190239,22962929
12/10/2018,113.699997,118.5,112.550003,115.800003,105.846413,22021483
15/10/2018,117.349998,117.900002,115.5,117.050003,106.988976,13466169
16/10/2018,118.25,121.900002,117.599998,120.550003,110.188133,28775165
17/10/2018,122,123.099998,112.550003,114.300003,104.475357,23817952
19/10/2018,114.199997,115.349998,111.800003,112.5,102.830063,18222537
22/10/2018,114.25,115.199997,112.050003,112.800003,103.104279,14948095
23/10/2018,112.400002,113.349998,109.800003,111.449997,101.870323,10546934
24/10/2018,113,118,112.050003,116.800003,106.760468,21635405
25/10/2018,113.599998,115.400002,111.449997,112.849998,103.149979,16808400
26/10/2018,112.900002,114.650002,111.099998,113.150002,103.424194,14901621
29/10/2018,113.5,115.699997,111.599998,115.25,105.343689,16836664
30/10/2018,114.5,116.75,114.199997,115,105.115181,13868396
31/10/2018,115,115.900002,112.199997,114.699997,104.840965,19798678
01/11/2018,115.5,116.849998,112.349998,113.349998,103.606995,29711234
02/11/2018,114.400002,118.449997,113.800003,117.699997,107.583099,24471836
05/11/2018,117.650002,121.849998,116.199997,120.699997,110.325233,23855608
06/11/2018,121.349998,122.150002,118.699997,120.900002,110.508049,16862260
07/11/2018,122.75,122.849998,121.5,121.849998,111.376381,3042907
09/11/2018,122.400002,122.400002,117.800003,118.25,108.085823,21816053
12/11/2018,118.599998,119.349998,116.050003,118.300003,108.131531,16269886
13/11/2018,118.25,119.349998,117.099998,119,108.771362,15407719
14/11/2018,113.400002,114,106,106.5,97.345795,97513684
15/11/2018,107.5,108.050003,105.5,106.099998,96.980179,40979357
16/11/2018,106.550003,107.5,105.050003,105.550003,96.477463,23698703
19/11/2018,105.949997,109.5,105.5,108.800003,99.448105,29892053
20/11/2018,108.900002,110.25,106.849998,107.650002,98.39695,30908911
21/11/2018,107.599998,110.900002,107.199997,110.300003,100.819168,28795021
22/11/2018,110.300003,111.349998,109,109.300003,99.905128,22767697
26/11/2018,109.900002,110.599998,107,108.900002,99.539505,22402073
27/11/2018,108.5,110.699997,108.349998,110.300003,100.819168,17013841
28/11/2018,110.449997,111.5,108,108.349998,99.036781,19349547
29/11/2018,109.150002,111.050003,108.550003,110.150002,100.68206,18550367
30/11/2018,110.25,112.650002,110.25,112.349998,102.692955,24350704
03/12/2018,112.449997,112.449997,106,107.150002,97.939926,38877711
04/12/2018,107.199997,108.25,106.400002,107.300003,98.077034,19205961
05/12/2018,106.650002,106.900002,102.650002,103.599998,94.695061,35663386
06/12/2018,102.349998,102.699997,101.099998,102.099998,93.323997,21429046
07/12/2018,102.400002,103.699997,101.25,102.900002,94.055237,16073694
10/12/2018,101,101.5,97.699997,100.449997,91.815819,17819978
11/12/2018,98.75,104.300003,98.400002,103.199997,94.329453,19315997
12/12/2018,104.199997,106.849998,104.050003,105.150002,96.111839,18368690
13/12/2018,106.949997,106.949997,103.75,104.400002,95.4263,14387333
14/12/2018,103.650002,105.050003,103,104.050003,95.106384,12567569
17/12/2018,104.75,106.300003,104.400002,106,96.888779,11255782
18/12/2018,105.400002,105.800003,104,104.800003,95.791916,10904597
19/12/2018,105.099998,108.5,105.099998,107.699997,98.442642,18023307
20/12/2018,107.349998,108.900002,105.849998,106.150002,97.025879,14677973
21/12/2018,106.449997,107,103.550003,105.349998,96.294647,19003345
24/12/2018,105.449997,105.449997,103.75,104.599998,95.609108,9663127
26/12/2018,104,104.300003,102,103.900002,94.969276,10559085
27/12/2018,104.800003,105,102.699997,103,94.146645,10605851
28/12/2018,103.050003,104.400002,102.550003,102.75,93.918129,12224599
31/12/2018,103.900002,103.900002,102.199997,102.5,93.689621,11768308
01/01/2019,102.849998,102.900002,100.849998,102.5,93.689621,13384173
02/01/2019,102.050003,102.300003,99,99.949997,91.358803,40123864
03/01/2019,99.75,100.300003,97.900002,98.150002,89.713524,24374807
04/01/2019,98.150002,98.75,96,96.800003,88.479561,24533568
07/01/2019,98,98.050003,93.050003,93.449997,85.417503,34348346
08/01/2019,93.199997,94.150002,92.449997,93.050003,85.051895,30663741
09/01/2019,94.199997,95.599998,93.349998,94.449997,86.331551,27548584
10/01/2019,96.599998,96.599998,94.800003,95,86.834274,32312717
11/01/2019,95.150002,95.449997,93.699997,94.300003,86.19445,14986175
14/01/2019,94.300003,94.300003,92.699997,93.5,85.463211,12855740
15/01/2019,93.5,94.449997,93.25,93.599998,85.554619,11106564
16/01/2019,93.5,94.300003,93.449997,93.949997,85.874535,10035208
17/01/2019,94.150002,94.449997,93.050003,93.25,85.234695,8949001
18/01/2019,93.349998,93.550003,92,92.300003,84.366364,10880766
21/01/2019,92.349998,92.599998,90.349998,90.599998,82.812477,11361469
22/01/2019,89.25,89.400002,86.5,87.949997,80.390266,28973401
23/01/2019,87.900002,89.5,87.199997,89.150002,81.487114,13463017
24/01/2019,89.150002,89.25,84.5,84.800003,77.511017,31366207
25/01/2019,85.300003,85.849998,82.199997,82.599998,75.500122,24874754
28/01/2019,82.599998,83.5,80.800003,83,75.865738,20419146
29/01/2019,83,83.599998,81.650002,82.300003,75.225914,23195132
30/01/2019,82.5,83.050003,80.699997,80.949997,73.991943,17250863
31/01/2019,81.300003,82.199997,79.550003,81.300003,74.311867,36294901
01/02/2019,81.75,87.199997,80.849998,83.550003,76.368462,65021097
04/02/2019,84.099998,84.300003,81.550003,82.300003,75.225914,17072907
05/02/2019,82,83.400002,81.199997,82.150002,75.088806,16979058
06/02/2019,82.300003,83.150002,80.5,82.550003,75.454422,13068393
07/02/2019,82.650002,88.5,82.400002,87.75,80.207451,42292682
08/02/2019,88,88.050003,85.599998,87.050003,79.567619,20469839
11/02/2019,86.800003,86.800003,82.599998,83.099998,75.957146,18189713
12/02/2019,83,83.550003,81,81.199997,74.220459,15898399
14/02/2019,78.5,87.099998,77.75,84.449997,77.191093,45263573
15/02/2019,81.800003,82.349998,78,79.949997,73.077904,53819329
18/02/2019,79.800003,79.949997,77.599998,79.199997,72.392372,18434019
19/02/2019,80,81.199997,78.5,79.199997,72.392372,33017444
20/02/2019,79.800003,81.5,79.800003,80.949997,73.991943,25543536
21/02/2019,81.5,81.650002,80.199997,81.150002,74.174751,18529079
22/02/2019,81,82.849998,80.75,81.849998,74.814583,28694764
25/02/2019,82.449997,83.5,81.75,83.25,76.094246,17273781
26/02/2019,82.349998,83.75,80.5,83.300003,76.139961,24243625
27/02/2019,83.650002,85.699997,82.349998,84.849998,77.556717,37470474
28/02/2019,85.900002,87,85.199997,86.5,79.064896,40784271
01/03/2019,87.400002,87.900002,84.400002,86.599998,79.156296,34521039
05/03/2019,86.699997,91,85.800003,90.5,82.721077,35128559
06/03/2019,91.949997,92.849998,89.900002,90.599998,82.812477,37509378
07/03/2019,90.949997,92.099998,89.400002,90.900002,83.086693,23050857
08/03/2019,90.900002,90.949997,89.300003,89.650002,81.944145,19294489
11/03/2019,90.800003,93.599998,90.099998,93.050003,85.051895,22713360
12/03/2019,94.050003,95.5,92.599998,92.949997,84.96048,36928756
13/03/2019,92.949997,94.400002,92,93.800003,85.737427,19828846
14/03/2019,94.099998,94.5,92.849998,93.949997,85.874535,18356759
15/03/2019,93.949997,95,93.650002,94.099998,86.011642,24437891
18/03/2019,94.300003,94.449997,91.150002,92.400002,84.457764,22606290
19/03/2019,92.400002,92.650002,90.900002,91.400002,83.543724,15395289
20/03/2019,91.5,91.800003,90.050003,90.849998,83.040993,11856254
22/03/2019,91,92,89.25,89.599998,81.89843,17105182
25/03/2019,89,89.25,87.300003,87.5,79.978935,11836240
26/03/2019,87.599998,88.099998,85.349998,86.300003,78.882095,20235983
27/03/2019,86.699997,87.75,85.099998,85.449997,78.105148,25086886
28/03/2019,85.599998,89.699997,85.300003,88.599998,80.98439,26677216
01/04/2019,92.199997,92.900002,90.099998,90.349998,82.583961,26616287
02/04/2019,90.800003,91.25,88.599998,89.550003,81.85273,19323952
03/04/2019,89.800003,90.800003,87.5,87.800003,80.253151,19962585
04/04/2019,87.5,88.800003,87,87.449997,79.933228,19328175
05/04/2019,87.900002,88.5,86.900002,87.75,80.207451,14721025
08/04/2019,88.25,88.949997,86.800003,87.25,79.750427,14834678
09/04/2019,87.300003,92.800003,86.199997,91.699997,83.817924,41766873
10/04/2019,91.900002,92.300003,90.400002,91.550003,83.680824,28021324
11/04/2019,91.599998,95,91.300003,94.5,86.377258,40272653
12/04/2019,94.400002,96.300003,93.400002,95.650002,87.428413,26390565
15/04/2019,97,97.300003,95.099998,95.75,87.519814,29805368
16/04/2019,96.099998,97.75,95.599998,96.349998,88.06823,25209332
18/04/2019,97,97.199997,94.050003,95.75,87.519814,19780948
22/04/2019,95.800003,95.849998,91.800003,92.150002,84.229248,19341457
23/04/2019,92.5,93.25,91.199997,91.550003,83.680824,19425738
24/04/2019,91.599998,92.5,90.550003,91.25,83.406609,17671024
25/04/2019,91.449997,92.5,89.550003,89.849998,82.126945,23972672
26/04/2019,89.75,90.150002,88.099998,88.5,80.89299,16125203
30/04/2019,87.900002,88.349998,85.300003,86.949997,79.476212,19935462
02/05/2019,87.099998,91.800003,85.800003,89.550003,81.85273,58223470
03/05/2019,90,91,88.599998,89.599998,81.89843,23708069
06/05/2019,88.949997,89.400002,87.75,88.050003,80.481674,12211735
07/05/2019,88.699997,88.800003,85.599998,85.949997,78.562172,14500633
08/05/2019,85.349998,86.400002,84.949997,85.949997,78.562172,13038488
09/05/2019,85.599998,85.949997,83,84.849998,77.556717,22648198
10/05/2019,84.849998,86.25,84.849998,85.900002,78.516472,13767863
13/05/2019,85.800003,86.5,82.599998,83,75.865738,13918199
14/05/2019,83,85.599998,82.050003,84.599998,77.328209,18328116
15/05/2019,85,85.800003,81.449997,81.949997,74.905983,17950986
16/05/2019,81.949997,83.949997,81.400002,82.900002,75.774338,14994353
17/05/2019,83.099998,85.050003,82.599998,84.5,77.236801,13305907
20/05/2019,87.800003,88.300003,86.199997,87.550003,80.024643,34895381
21/05/2019,88.400002,89.800003,87.199997,88.25,80.664474,27443220
22/05/2019,88.849998,89,85.900002,87.849998,80.298859,18235187
23/05/2019,90,91.849998,88.400002,88.849998,81.212906,31464067
24/05/2019,88.849998,95,88.849998,93.800003,85.737427,53728065
27/05/2019,91.699997,91.75,89.550003,91.150002,83.315208,37249413
28/05/2019,92,93.849998,90.800003,91.199997,83.360909,30575742
29/05/2019,90.800003,91,89.050003,89.699997,81.989838,15951343
30/05/2019,89.900002,90.75,89.199997,90.449997,82.675362,19711797
31/05/2019,90.449997,90.550003,87.650002,88.849998,81.212906,20759367
03/06/2019,88.849998,92.300003,87.800003,91.849998,83.95504,34358814
04/06/2019,91.849998,93.75,91.349998,93.050003,85.051895,24114157
06/06/2019,93.050003,93.150002,90.400002,91.300003,83.452316,19319345
07/06/2019,91.150002,91.75,89.099998,90,82.264046,16922481
10/06/2019,91.449997,91.599998,89.25,90.699997,82.903885,15352497
11/06/2019,90.900002,91.75,89.75,91.199997,83.360909,14535974
12/06/2019,90.599998,91.300003,88.849998,89.25,81.578522,13506820
13/06/2019,89.050003,89.199997,87.050003,88.099998,80.527374,14582200
14/06/2019,87.599998,88.800003,87.199997,87.650002,80.116051,11149101
17/06/2019,87.5,87.650002,83.150002,83.650002,76.459869,24248588
18/06/2019,82.699997,84.650002,82.650002,83.650002,76.459869,16736759
19/06/2019,84.150002,84.800003,81.75,82.900002,75.774338,17456059
20/06/2019,80.699997,88.550003,80.400002,87.800003,80.253151,39656557
21/06/2019,86.949997,87.599998,85.75,86.5,79.064896,18399090
24/06/2019,86.650002,87.199997,85.199997,85.800003,78.425064,11625336
25/06/2019,85.800003,89.900002,85.099998,85.699997,78.333656,20836957
26/06/2019,85.650002,86.400002,84.800003,85.699997,78.333656,20424534
27/06/2019,86.050003,88.449997,85.800003,88,80.435966,23155847
28/06/2019,88.650002,88.650002,86.25,87.25,79.750427,14814608
01/07/2019,87.849998,88.5,86.5,87.099998,79.613327,14004525
02/07/2019,87.050003,88.099998,86.099998,87.849998,80.298859,12608552
03/07/2019,88,91,87.900002,90.300003,82.538269,24266937
04/07/2019,90.099998,90.550003,88.900002,89.949997,82.218346,12528964
05/07/2019,90.050003,90.449997,86.5,87.050003,79.567619,14998747
08/07/2019,86,86.199997,83.699997,84.800003,77.511017,15584784
09/07/2019,85.099998,86.199997,82.849998,83.800003,76.596977,17891519
10/07/2019,84,85.650002,83.550003,84.800003,77.511017,14004112
11/07/2019,85.949997,85.949997,83.25,85.150002,77.83094,21121339
12/07/2019,84.599998,85.650002,83.699997,84.900002,77.602417,17694386
15/07/2019,85.400002,86.150002,84.800003,85.449997,78.105148,11215658
16/07/2019,82.449997,86.650002,82.199997,86.349998,78.927788,28109904
17/07/2019,85.5,86.650002,85,85.449997,78.105148,11901649
18/07/2019,85.449997,85.449997,81.050003,81.449997,74.448959,24405105
19/07/2019,82,82.449997,79,79.349998,72.529472,22863618
22/07/2019,79.849998,80.5,78.150002,79.349998,72.529472,19431095
23/07/2019,77.800003,77.800003,74.599998,75,71.340469,33574191
24/07/2019,74.849998,75.300003,71.900002,72.550003,71.985413,29917145
25/07/2019,72.550003,73.199997,71.550003,72.300003,71.737358,17574892
26/07/2019,72.5,74.900002,72.349998,74.199997,73.622566,20215434
29/07/2019,74.099998,74.150002,70.699997,71.650002,71.092415,21564172
30/07/2019,71.5,72.449997,68,68.550003,68.016541,28661597
31/07/2019,67.949997,70.849998,67.550003,69.849998,69.306419,30181821
01/08/2019,69.900002,73.150002,67.150002,68.849998,68.314201,58774538
02/08/2019,68.699997,68.800003,60.849998,64.400002,63.898834,140584299
05/08/2019,63.900002,64.300003,61.650002,63.950001,63.452335,38872870
06/08/2019,63.400002,65.099998,62.700001,63.450001,62.956226,37426726
07/08/2019,63.5,64.5,60.700001,61.150002,60.674126,32589803
08/08/2019,61.650002,63.950001,60.799999,63.549999,63.055447,32732676
09/08/2019,64.150002,65.849998,63.150002,64.300003,63.799614,46588899
13/08/2019,64.5,64.650002,61.299999,61.549999,61.071011,22999939
14/08/2019,62,63.599998,60.299999,62.549999,62.063229,30875450
16/08/2019,61.799999,64.449997,61.349998,63.650002,63.154671,30292259
19/08/2019,63.75,65.25,63.400002,64.5,63.998055,24171538
20/08/2019,64.5,64.599998,63,63.849998,63.353111,17439363
21/08/2019,64,64.050003,61.25,61.900002,61.418289,26647994
22/08/2019,62.299999,62.5,57.400002,57.900002,57.449417,33586076
23/08/2019,57.25,60.700001,56.950001,60.25,59.781128,37001588
26/08/2019,65,66.25,59.599998,63.150002,62.658562,85564840
27/08/2019,63.450001,68.050003,63.299999,66.650002,66.131325,61055999
28/08/2019,67,67.550003,65.650002,66.75,66.230545,31618285
29/08/2019,65.900002,66.300003,64.349998,65.75,65.238327,20369412
30/08/2019,65.650002,65.900002,63.049999,64.449997,63.948441,25897781
03/09/2019,63.5,66.699997,61.799999,65.349998,64.841438,47837128
04/09/2019,64.650002,64.900002,61.150002,62.599998,62.112839,43789525
05/09/2019,62.599998,63.5,62.299999,63.049999,62.559338,32336123
06/09/2019,62.5,64.400002,62.25,63.900002,63.402725,32439839
09/09/2019,62.599998,63.349998,62,62.900002,62.410507,29769848
11/09/2019,62,64.699997,60.200001,63.700001,63.204281,62192949
12/09/2019,63.549999,64.699997,62.099998,62.5,62.013618,32626666
13/09/2019,62.5,64.199997,62.349998,63.450001,62.956226,41363429
16/09/2019,62.75,63.450001,62.25,62.450001,61.964008,22607379
17/09/2019,63.049999,63.150002,59.700001,59.950001,59.483463,31708818
18/09/2019,60.349998,60.799999,57.450001,59.650002,59.185799,43758798
19/09/2019,59.900002,59.900002,58,58.400002,57.945526,22588369
20/09/2019,58.75,70.150002,57.700001,69.199997,68.661476,119981874
23/09/2019,72.599998,83,71.550003,74.650002,74.069069,96866019
24/09/2019,76.699997,77.599998,73.300003,75.150002,74.565178,63635601
25/09/2019,74.75,75.449997,70.300003,70.75,70.199417,48548458
26/09/2019,71,74.099998,70.050003,73.5,72.928017,44995349
27/09/2019,73,73,71.150002,71.900002,71.340469,26521149
30/09/2019,72.099998,72.25,65.900002,68.699997,68.165367,41578689
01/10/2019,68,69.75,65,65.949997,65.436768,40792618
03/10/2019,65,68.349998,64.349998,67.650002,67.123543,34086758
04/10/2019,67.849998,72.650002,66.800003,68.050003,67.520432,55436660
07/10/2019,66,66.650002,63.5,64.400002,63.898834,36232884
09/10/2019,64.599998,69.75,64.449997,69.050003,68.51265,48874905
10/10/2019,68.5,70.75,67.550003,68.849998,68.314201,41367276
11/10/2019,68.900002,69.5,66.800003,68.650002,68.115761,28366152
14/10/2019,68.849998,69.699997,66.699997,67.599998,67.073929,25586787
15/10/2019,68,69.650002,67.349998,69.099998,68.562256,24809075
16/10/2019,70,71.949997,69.099998,71.650002,71.092415,35894091
17/10/2019,71.400002,74.099998,71,73.5,72.928017,28557723
18/10/2019,73.800003,78.25,73.050003,77.5,76.896889,48555721
22/10/2019,77.050003,77.150002,75.150002,76.050003,75.458176,25729454
23/10/2019,75.949997,76.550003,73.699997,75.300003,74.714012,23077314
24/10/2019,75.400002,77.25,74.75,75.849998,75.259727,23358581
25/10/2019,75.599998,75.650002,73.150002,74.699997,74.118675,21594910
27/10/2019,null,null,null,null,null,null
29/10/2019,76,80.849998,75.699997,79.25,78.63327,43289235
30/10/2019,79.900002,80.349998,77.550003,78.199997,77.591438,27208583
31/10/2019,78.5,79.099998,76.300003,76.75,76.152725,22232632
01/11/2019,76.75,77.449997,75.199997,75.949997,75.358948,24861078
04/11/2019,75.050003,76.699997,74,75.199997,74.614784,19855689
05/11/2019,75.150002,76.650002,74.699997,74.949997,74.36673,15228670
06/11/2019,74.5,77.449997,74.400002,76.800003,76.202339,22004305
07/11/2019,76.5,77.150002,75.150002,76.699997,76.103111,15633155
08/11/2019,76.050003,79.25,75.699997,76.550003,75.954285,28384175
11/11/2019,71,79.949997,71,79.199997,78.583656,74700629
13/11/2019,78.5,82.650002,77.199997,80.599998,79.972763,53302413
14/11/2019,80.199997,80.400002,77.400002,79,78.385216,26587855
15/11/2019,82.900002,83.400002,78.900002,79.5,78.881325,46353490
18/11/2019,80.199997,82.599998,78.800003,82.150002,81.510704,25361242
19/11/2019,82.300003,82.449997,80.199997,82,81.36187,21836162
20/11/2019,81.800003,84.699997,81,83,82.354088,32259341
21/11/2019,83,84.199997,82.150002,82.5,81.857979,18297529
22/11/2019,82.449997,82.75,80.699997,81.349998,80.716927,17038464
25/11/2019,81.800003,83.650002,81.349998,83.349998,82.701363,14382133
26/11/2019,84.25,84.5,80.449997,80.800003,80.171211,22669457
27/11/2019,83,83.400002,80.800003,81.800003,81.163429,28362167
28/11/2019,82.199997,82.300003,80.900002,81.449997,80.816147,15337865
29/11/2019,81,82.099998,78.25,79.150002,78.53405,22446824
02/12/2019,78.5,80.800003,77.5,79.599998,78.980545,27354475
03/12/2019,79.75,80.099998,77.050003,77.699997,77.095329,11718674
04/12/2019,77.449997,77.900002,75.849998,77.550003,76.946503,15559207
05/12/2019,78,78.599998,76.150002,76.449997,75.855057,12040850
06/12/2019,76.900002,77.199997,75.650002,76.5,75.904671,13925691
09/12/2019,76.400002,78.25,75.949997,77.349998,76.748055,14167910
10/12/2019,77.199997,77.699997,76.150002,76.849998,76.251945,9784165
11/12/2019,76.5,77.800003,75.199997,76.5,75.904671,10109346
12/12/2019,77.099998,78.949997,76.349998,78.5,77.889107,11998466
13/12/2019,78.949997,82.099998,78.699997,80.949997,80.320038,22239728
16/12/2019,81.449997,81.699997,79.099998,79.449997,78.831711,12241731
17/12/2019,79.300003,80.849998,79.199997,80.5,79.873543,9981633
18/12/2019,80.050003,81.300003,79.099998,79.900002,79.278214,12892036
19/12/2019,79.849998,81.25,79.349998,81,80.369652,18428318
20/12/2019,81.349998,82.099998,80.199997,80.400002,79.774323,19308087
23/12/2019,80.400002,81.900002,79.800003,80.349998,79.724709,13804278
24/12/2019,80.5,81,79.550003,79.900002,79.278214,9480343
26/12/2019,79.949997,80.5,79.199997,79.449997,78.831711,10288471
27/12/2019,79.5,80.5,79.199997,79.699997,79.079765,9314197
30/12/2019,79.949997,82.050003,79.699997,81.800003,81.163429,17742752
31/12/2019,81.849998,82.599998,81.199997,81.5,80.865761,15426363
01/01/2020,81.949997,81.949997,80.800003,81.050003,80.419266,7797743
02/01/2020,81,84.5,80.800003,84,83.346306,22915441
03/01/2020,84.25,84.949997,82.900002,83.699997,83.048637,16113767
06/01/2020,82.550003,83.150002,79.550003,80.349998,79.724709,15558034
07/01/2020,81,82.449997,80.599998,82.099998,81.46109,16134697
08/01/2020,80.300003,81.5,80,80.5,79.873543,11813306
09/01/2020,81.5,82.800003,81.150002,82.449997,81.808365,18200762
10/01/2020,82.849998,83,81.050003,81.349998,80.716927,19483444
13/01/2020,81.849998,82.400002,81.199997,81.650002,81.014595,11504002
14/01/2020,81.650002,81.900002,80.800003,81.349998,80.716927,13478329
15/01/2020,81.599998,82.800003,80.599998,82.5,81.857979,18973316
16/01/2020,82.800003,84,82.300003,83.550003,82.899811,17444288
17/01/2020,83.349998,84.75,83.099998,84,83.346306,11892599
20/01/2020,84.050003,85.949997,84,84.800003,84.140083,21008247
21/01/2020,84.199997,86.650002,83.599998,86.300003,85.62841,22562935
22/01/2020,86.75,87.25,85,85.900002,85.231522,18524416
23/01/2020,85.599998,87,85.599998,86.599998,85.926071,8669370
24/01/2020,86.800003,87.5,86.099998,86.5,85.826851,8396545
27/01/2020,85.800003,87,85,85.400002,84.735413,9090936
28/01/2020,85.900002,86.849998,84.25,84.650002,83.991249,14793425
29/01/2020,85.150002,85.599998,84.300003,84.599998,83.941635,7987239
30/01/2020,84.550003,84.949997,82.25,83.400002,82.750977,12926430
31/01/2020,83.699997,83.900002,81.5,81.949997,81.312256,11977376
03/02/2020,77,79,74.800003,78,77.392998,29818912
04/02/2020,78,79.300003,77.349998,79,78.385216,18338944
05/02/2020,79.099998,82.300003,79.099998,80.349998,79.724709,23395561
06/02/2020,80.75,81.900002,79.550003,80.949997,80.320038,20629194
07/02/2020,81.199997,84.050003,79.800003,83.75,83.098251,29711890
10/02/2020,83.550003,84.449997,81.900002,82.949997,82.304474,20133624
11/02/2020,83.5,84.449997,82.599998,82.900002,82.254868,14986558
12/02/2020,83,83.300003,81.050003,81.349998,80.716927,15046483
13/02/2020,77.900002,82.900002,77.900002,81.550003,80.915375,42465314
14/02/2020,81.400002,81.550003,79.699997,80.25,79.625488,20290024
17/02/2020,80.25,82.699997,79.599998,81.550003,80.915375,19342729
18/02/2020,81,81.5,79.150002,80.25,79.625488,18476820
19/02/2020,80.449997,81.75,79.75,81.25,80.617706,17146555
20/02/2020,81.300003,84.650002,81.199997,84.300003,83.643974,28489436
24/02/2020,83,86.199997,82.599998,84.949997,84.28891,30055176
25/02/2020,85,86.349998,80.099998,80.650002,80.022377,44612516
26/02/2020,80.650002,81.900002,77.599998,77.949997,77.343384,32981809
27/02/2020,77.900002,78.150002,74.75,76,75.408562,32696106
28/02/2020,73,73.949997,69.5,69.900002,69.356033,35814841
02/03/2020,71.5,74.949997,71.050003,73.900002,73.324905,39273874
03/03/2020,74.099998,77,72.650002,75.449997,74.862839,23998122
04/03/2020,76.25,76.25,70.800003,72.449997,71.886185,28071315
05/03/2020,73.050003,74.099998,70.849998,71.800003,71.241249,33516020
06/03/2020,68.949997,71.800003,66.199997,71.199997,70.645912,21046275
09/03/2020,68.050003,71.349998,67.800003,68.849998,68.314201,22970003
11/03/2020,69.199997,70.099998,67.949997,68.550003,68.016541,22236883
12/03/2020,65,65.349998,60.549999,63.299999,62.807392,29550762
13/03/2020,57,68.5,52,66.699997,66.180931,28001145
16/03/2020,62.200001,66,62,63.349998,62.857002,17219253
17/03/2020,63.5,66.050003,61.900002,64.150002,63.65078,19650731
18/03/2020,65.400002,65.900002,63,64.25,63.75,18055664
19/03/2020,57.400002,57.400002,47.099998,48.049999,48.049999,83214004
20/03/2020,49.200001,49.400002,41.099998,43.950001,43.950001,96048135
23/03/2020,40,42.650002,34,36.049999,36.049999,62112584
24/03/2020,35.75,41.450001,35.150002,35.549999,35.549999,58887725
25/03/2020,35.75,36.5,33.700001,34.450001,34.450001,57152693
26/03/2020,35.450001,44.5,33.799999,42.849998,42.849998,100752167
27/03/2020,46.5,51.349998,41.5,43.299999,43.299999,80011929
30/03/2020,41.25,43.200001,40.599998,42.349998,42.349998,31795934
31/03/2020,44.549999,44.650002,41.650002,43.049999,43.049999,32633949
01/04/2020,43.049999,44.200001,40.099998,41.099998,41.099998,37099293
03/04/2020,41.099998,41.150002,38,38.150002,38.150002,37555393
07/04/2020,40,40.75,37.299999,39.849998,39.849998,49169938
08/04/2020,39.849998,47.799999,38.75,43.849998,43.849998,76817308
09/04/2020,45,46,44.049999,45.650002,45.650002,39546560
13/04/2020,45.700001,47.099998,44.5,46.049999,46.049999,41848804
15/04/2020,46.5,51.299999,46.299999,46.700001,46.700001,60309127
16/04/2020,46.150002,47.849998,45.549999,46.950001,46.950001,29831447
17/04/2020,49.400002,49.5,47.700001,48.900002,48.900002,27584065
20/04/2020,49.450001,49.900002,47.450001,47.900002,47.900002,38050060
21/04/2020,45.150002,46.150002,43.900002,44.099998,44.099998,23738147
22/04/2020,44.099998,45.349998,43.5,44.950001,44.950001,24753678
23/04/2020,45.950001,47.200001,45.650002,46.700001,46.700001,18761422
24/04/2020,46,46.299999,44.599998,44.950001,44.950001,15044148
27/04/2020,45.700001,46.200001,43.900002,44.299999,44.299999,20228019
28/04/2020,45.200001,45.5,43.75,44.549999,44.549999,18534474
29/04/2020,45.150002,48.75,44.549999,47.950001,47.950001,42144085
30/04/2020,49.099998,53.200001,49.099998,52.349998,52.349998,56358089
04/05/2020,50.049999,51.450001,48.25,49.299999,49.299999,32887553
05/05/2020,49.700001,50.849998,47.900002,48.349998,48.349998,41056481
06/05/2020,48.5,49.450001,47.200001,47.599998,47.599998,28838380
07/05/2020,47.400002,48.950001,45.799999,46.099998,46.099998,21404250
08/05/2020,47.400002,49.25,46.099998,47.049999,47.049999,30908883
11/05/2020,47.549999,49.400002,46.549999,48.75,48.75,52620294
12/05/2020,48.700001,49.099998,46.650002,48.599998,48.599998,24434204
13/05/2020,52,52,48.150002,48.75,48.75,48002139
14/05/2020,48,49.599998,47.400002,49.299999,49.299999,24670241
15/05/2020,49.299999,49.400002,46.900002,47.150002,47.150002,30012924
18/05/2020,47.200001,47.299999,42.5,43.849998,43.849998,42860432
19/05/2020,44.299999,45.25,42.849998,43.049999,43.049999,26931868
20/05/2020,43.049999,43.549999,42.349998,43.349998,43.349998,26022960
21/05/2020,43.349998,46.5,43.049999,46.099998,46.099998,42517927
22/05/2020,45.650002,45.799999,43.400002,43.599998,43.599998,29579130
26/05/2020,44,44.549999,43.099998,43.549999,43.549999,25975086
27/05/2020,43.799999,44.099998,43,43.200001,43.200001,30177711
28/05/2020,43.700001,44.75,43.200001,44.400002,44.400002,40119059
29/05/2020,43.75,44.349998,42,42.450001,42.450001,161896457
01/06/2020,43.849998,47.349998,43.5,46.400002,46.400002,85516109
02/06/2020,46.400002,48.099998,45,47.700001,47.700001,58619362
03/06/2020,48.5,49.099998,46.700001,47.150002,47.150002,39534733
04/06/2020,47.150002,47.200001,45.25,45.75,45.75,51798931
05/06/2020,46.299999,49.049999,45.5,48.349998,48.349998,86626744
08/06/2020,50,54.299999,49.650002,53.049999,53.049999,127005924
09/06/2020,54.549999,55.349998,50.099998,50.75,50.75,74461214
10/06/2020,51,53.200001,50.75,52.700001,52.700001,53552512
11/06/2020,52.099998,52.349998,50.700001,51.099998,51.099998,40374949
12/06/2020,47.099998,52.75,47.099998,52.349998,52.349998,48099060
15/06/2020,52.349998,53.799999,51.049999,51.75,51.75,41216921
16/06/2020,53.049999,53.150002,49.75,50.849998,50.849998,35077339
17/06/2020,50.5,51.299999,49.599998,50.5,50.5,19478299
18/06/2020,50.299999,51.400002,50.099998,51.150002,51.150002,17549274
19/06/2020,51.299999,54.900002,51.099998,54.349998,54.349998,60314031
22/06/2020,54.450001,55.700001,53.75,54.599998,54.599998,38409480
23/06/2020,55.200001,56.5,53.650002,56.25,56.25,44077677
24/06/2020,56.950001,58.5,53.650002,54.150002,54.150002,59320628
25/06/2020,54,54.799999,52.5,53.450001,53.450001,47193437
26/06/2020,55,55.5,51.799999,52.450001,52.450001,75774210
29/06/2020,51.650002,51.849998,48.450001,48.599998,48.599998,76140969
30/06/2020,49.200001,49.900002,46.650002,46.950001,46.950001,61764123
01/07/2020,47.549999,48.599998,46.849998,48.200001,48.200001,52568135
02/07/2020,48.25,49.450001,47.900002,49.099998,49.099998,42265025
03/07/2020,49.599998,49.599998,48.450001,49.099998,49.099998,26948635
06/07/2020,49.799999,52,49.450001,51.75,51.75,58136383
07/07/2020,52,52.650002,50.849998,51.900002,51.900002,44498226
08/07/2020,52.150002,53.400002,51.599998,51.950001,51.950001,55030505
09/07/2020,52.5,52.700001,51.75,52.150002,52.150002,23041415
10/07/2020,51.5,52.200001,50.599998,51.150002,51.150002,28983326
13/07/2020,51.599998,52.450001,50.599998,50.799999,50.799999,22917791
14/07/2020,50.900002,50.900002,48.700001,50.400002,50.400002,31559332
15/07/2020,50.400002,51,49,49.299999,49.299999,26806872
16/07/2020,49.349998,50.5,48.349998,50.200001,50.200001,23238290
17/07/2020,50.849998,52.5,50.400002,51.75,51.75,35679122
20/07/2020,52.200001,52.799999,51.25,51.549999,51.549999,31407348
21/07/2020,52.049999,53.150002,51.799999,52.450001,52.450001,35339133
22/07/2020,52.450001,52.599998,50.900002,51.650002,51.650002,27100245
23/07/2020,51.549999,52.549999,51,52,52,14462940
24/07/2020,51.450001,52.75,49.900002,50.400002,50.400002,38254625
27/07/2020,50.900002,50.900002,48.900002,49.349998,49.349998,21553270
28/07/2020,49.400002,51.450001,49.299999,51.150002,51.150002,39602333
29/07/2020,50.900002,52,50.650002,51.200001,51.200001,26869189
30/07/2020,51.25,51.549999,49,49.150002,49.150002,30168975
31/07/2020,49.25,49.400002,48,48.650002,48.650002,24647134
03/08/2020,49,50.5,48.650002,49.299999,49.299999,38014791
04/08/2020,49.700001,50.25,49.299999,49.599998,49.599998,22245978
05/08/2020,49.900002,50.200001,48.849998,49,49,31666335
06/08/2020,49.599998,49.650002,48.849998,49.049999,49.049999,20389555
07/08/2020,49.150002,50.400002,48.849998,49.950001,49.950001,28799077
10/08/2020,50.549999,51.849998,50.349998,51.400002,51.400002,33046251
11/08/2020,51.900002,52.400002,50.599998,52.200001,52.200001,33476192
12/08/2020,52.200001,54.099998,51.900002,53.950001,53.950001,52069974
13/08/2020,53,62,52.299999,61.099998,61.099998,245006352
